%! SwiftWare Plot Tracker Utility
% /app/swift/bin/gtu -c\'*, *, *\' -eP1P.gmt -i6153140 -pP1P.ps -v$Revision: 1.1 $ -x0.4 -y0.4
%
%% Sequence:        1135446888
%% Id:              6153140
%% Executor:        P1P.gmt
%% Postscript File: P1P.ps
%% RCS Version:     *
%
% set font typeface and point size
/Times-BoldItalic findfont
6 scalefont
setfont
%
% print stamp to output
28 28 moveto
(1135446888.6153140) show
%!PS-Adobe-3.0 EPSF-3.0
%%BoundingBox: (atend)
%%Title: GMT v3.3.6 Document from psbasemap
%%Creator: GMT
%%For: swift
%%DocumentNeededResources: font Times-Roman
%%CreationDate: Sat Dec 24 09:54:48 2005
%%LanguageLevel: 1
%%DocumentData: Binary
%%EndComments

%%BeginProlog

% Begin pslib header

250 dict begin

/A /setgray load def
/B /setdash load def
/C /setrgbcolor load def
/D /rlineto load def
/E {dup stringwidth pop} bind def
/F /fill load def
/G /rmoveto load def
/L /lineto load def
/M {stroke moveto} bind def
/m {moveto} bind def
/N /newpath load def
/O {M {D} repeat P V C F U S} def
/o {M {D} repeat P V A F U S} def
/P /closepath load def
/Q {M {D} repeat P V C F U N} def
/q {M {D} repeat P V A F U N} def
/t {M {D} repeat P S} def
/R /rotate load def
/S /stroke load def
/T /translate load def
/U /grestore load def
/V /gsave load def
/W /setlinewidth load def
/X {M dup 0 D dup -0.5 mul dup G 0 exch D S} bind def
/Y {findfont exch scalefont setfont} bind def
/Z /show load def
/A0 {0 exch M 0 D D D D D 0 D P V A F U N} bind def
/A1 {0 exch M 0 D D D D D 0 D P V A F U S} bind def
/A2 {0 exch M 0 D D D D D 0 D P V C F U N} bind def
/A3 {0 exch M 0 D D D D D 0 D P V C F U S} bind def
/A4 {0 exch M 0 D D D D D 0 D P S} bind def
/C0 {0 360 arc V A F U N} bind def
/C1 {0 360 arc V A F U S} bind def
/C2 {0 360 arc V C F U N} bind def
/C3 {0 360 arc V C F U S} bind def
/C4 {0 360 arc S} bind def
/D0 {M 5 {dup} repeat D neg exch D neg exch neg D P V A F U N} bind def
/D1 {M 5 {dup} repeat D neg exch D neg exch neg D P V A F U S} bind def
/D2 {M 5 {dup} repeat D neg exch D neg exch neg D P V C F U N} bind def
/D3 {M 5 {dup} repeat D neg exch D neg exch neg D P V C F U S} bind def
/D4 {M 5 {dup} repeat D neg exch D neg exch neg D P S} bind def
/R0 {M dup 0 D exch 0 exch D neg 0 D P V A F U N} bind def
/R1 {M dup 0 D exch 0 exch D neg 0 D P V A F U S} bind def
/R2 {M dup 0 D exch 0 exch D neg 0 D P V C F U N} bind def
/R3 {M dup 0 D exch 0 exch D neg 0 D P V C F U S} bind def
/R4 {M dup 0 D exch 0 exch D neg 0 D P S} bind def
/S0 {M dup dup 0 D 0 exch D neg 0 D P V A F U N} bind def
/S1 {M dup dup 0 D 0 exch D neg 0 D P V A F U S} bind def
/S2 {M dup dup 0 D 0 exch D neg 0 D P V C F U N} bind def
/S3 {M dup dup 0 D 0 exch D neg 0 D P V C F U S} bind def
/S4 {M dup dup 0 D 0 exch D neg 0 D P S} bind def
/T0 {M dup 0 D dup -0.5 mul exch 0.866025 mul D P V A F U N} bind def
/T1 {M dup 0 D dup -0.5 mul exch 0.866025 mul D P V A F U S} bind def
/T2 {M dup 0 D dup -0.5 mul exch 0.866025 mul D P V C F U N} bind def
/T3 {M dup 0 D dup -0.5 mul exch 0.866025 mul D P V C F U S} bind def
/T4 {M dup 0 D dup -0.5 mul exch 0.866025 mul D P S} bind def
/I0 {M dup 0 D dup -0.5 mul exch -0.866025 mul D P V A F U N} bind def
/I1 {M dup 0 D dup -0.5 mul exch -0.866025 mul D P V A F U S} bind def
/I2 {M dup 0 D dup -0.5 mul exch -0.866025 mul D P V C F U N} bind def
/I3 {M dup 0 D dup -0.5 mul exch -0.866025 mul D P V C F U S} bind def
/I4 {M dup 0 D dup -0.5 mul exch -0.866025 mul D P S} bind def
/E0 {V T dup 0 exch M 0.726542528 mul -72 R dup 0 D 4 {72 R dup 0 D -144 R dup 0 D} repeat pop P V A F U N U} bind def
/E1 {V T dup 0 exch M 0.726542528 mul -72 R dup 0 D 4 {72 R dup 0 D -144 R dup 0 D} repeat pop P V A F U S U} bind def
/E2 {V T dup 0 exch M 0.726542528 mul -72 R dup 0 D 4 {72 R dup 0 D -144 R dup 0 D} repeat pop P V C F U N U} bind def
/E3 {V T dup 0 exch M 0.726542528 mul -72 R dup 0 D 4 {72 R dup 0 D -144 R dup 0 D} repeat pop P V C F U S U} bind def
/E4 {V T dup 0 exch M 0.726542528 mul -72 R dup 0 D 4 {72 R dup 0 D -144 R dup 0 D} repeat pop P S U} bind def
/H0 {V T dup dup 0.5 mul exch 0.866025404 mul M 5 {-60 R dup 0 D} repeat pop P V A F U N U} bind def
/H1 {V T dup dup 0.5 mul exch 0.866025404 mul M 5 {-60 R dup 0 D} repeat pop P V A F U S U} bind def
/H2 {V T dup dup 0.5 mul exch 0.866025404 mul M 5 {-60 R dup 0 D} repeat pop P V C F U N U} bind def
/H3 {V T dup dup 0.5 mul exch 0.866025404 mul M 5 {-60 R dup 0 D} repeat pop P V C F U S U} bind def
/H4 {V T dup dup 0.5 mul exch 0.866025404 mul M 5 {-60 R dup 0 D} repeat pop P S U} bind def
/P0 {arc P V A F U N} bind def
/P1 {arc P V A F U S} bind def
/P2 {arc P V C F U N} bind def
/P3 {arc P V C F U S} bind def
/P4 {arc P S} bind def
/a {P V A F U N} def
/b {P V A F U S} def
/c {P V C F U N} def
/d {P V C F U S} def
/p {P S} def
/F0 {/Helvetica Y} bind def
/F1 {/Helvetica-Bold Y} bind def
/F2 {/Helvetica-Oblique Y} bind def
/F3 {/Helvetica-BoldOblique Y} bind def
/F4 {/Times-Roman Y} bind def
/F5 {/Times-Bold Y} bind def
/F6 {/Times-Italic Y} bind def
/F7 {/Times-BoldItalic Y} bind def
/F8 {/Courier Y} bind def
/F9 {/Courier-Bold Y} bind def
/F10 {/Courier-Oblique Y} bind def
/F11 {/Courier-BoldOblique Y} bind def
/F12 {/Symbol Y} bind def
/F13 {/AvantGarde-Book Y} bind def
/F14 {/AvantGarde-BookOblique Y} bind def
/F15 {/AvantGarde-Demi Y} bind def
/F16 {/AvantGarde-DemiOblique Y} bind def
/F17 {/Bookman-Demi Y} bind def
/F18 {/Bookman-DemiItalic Y} bind def
/F19 {/Bookman-Light Y} bind def
/F20 {/Bookman-LightItalic Y} bind def
/F21 {/Helvetica-Narrow Y} bind def
/F22 {/Helvetica-Narrow-Bold Y} bind def
/F23 {/Helvetica-Narrow-Oblique Y} bind def
/F24 {/Helvetica-Narrow-BoldOblique Y} bind def
/F25 {/NewCenturySchlbk-Roman Y} bind def
/F26 {/NewCenturySchlbk-Italic Y} bind def
/F27 {/NewCenturySchlbk-Bold Y} bind def
/F28 {/NewCenturySchlbk-BoldItalic Y} bind def
/F29 {/Palatino-Roman Y} bind def
/F30 {/Palatino-Italic Y} bind def
/F31 {/Palatino-Bold Y} bind def
/F32 {/Palatino-BoldItalic Y} bind def
/F33 {/ZapfChancery-MediumItalic Y} bind def
/F34 {/ZapfDingbats Y} bind def
/F35 {/Ryumin-Light-EUC-H Y} bind def
/F36 {/Ryumin-Light-EUC-V Y} bind def
/F37 {/GothicBBB-Medium-EUC-H Y} bind def
/F38 {/GothicBBB-Medium-EUC-V Y} bind def
%%EndProlog

%%BeginSetup

% Init coordinate system and scales
% Scale is originally set to 0.24, which means that
% 1 inch on the paper equals 300 Postscript units
0.24 0.24 scale
% End of pslib header
%%EndSetup

300 300 T
%
% PostScript produced by:
%
%% psbasemap -JX6/-2.5 -R0/42.5/0/9 -B50/4nw -K -X1 -Y1 

S 0 A
%
% Start of basemap
%
S [] 0 B
%
% Map boundaries
%
%
% Start of left y-axis
%
90 R
S 5 W
S [] 0 B
0 0 M
750 0 D
S
S 2 W
S [] 0 B
750 0 M
0 22 D
S
417 0 M
0 22 D
S
83 0 M
0 22 D
S
750 0 M
0 11 D
S
417 0 M
0 11 D
S
83 0 M
0 11 D
S
-90 R
%
% End of y-axis
%
%
% Start of upper x-axis
%
0 750 T
S 5 W
S [] 0 B
0 0 M
1800 0 D
S
S 2 W
S [] 0 B
0 0 M
0 22 D
S
0 0 M
0 11 D
S
0 -750 T
%
% End of x-axis
%
S [] 0 B
%
% End of basemap
%
S [] 0 B
S
%
% PostScript produced by:
%
%% psxy -JX6/-2.5 -R0/42.5/0/9 -B50/4nw -K -O -W4/50/50/255 

S 4 W
S [] 0 B
S 0.196 0.196 1 C
0 748 M
21 -123 D
21 123 D
149 0 D
42 -331 D
21 0 D
42 -334 D
85 665 D
85 0 D
42 -331 D
127 0 D
43 -334 D
84 665 D
85 0 D
42 -331 D
127 0 D
43 -334 D
85 665 D
84 0 D
43 -331 D
127 0 D
42 -334 D
85 665 D
84 0 D
43 -331 D
127 0 D
21 -167 D
 S
%
% Start of basemap
%
S [] 0 B
S 0 A
%
% Map boundaries
%
%
% Start of left y-axis
%
90 R
S 5 W
S [] 0 B
0 0 M
750 0 D
S
S 2 W
S [] 0 B
750 0 M
0 22 D
S
417 0 M
0 22 D
S
83 0 M
0 22 D
S
750 0 M
0 11 D
S
417 0 M
0 11 D
S
83 0 M
0 11 D
S
-90 R
%
% End of y-axis
%
%
% Start of upper x-axis
%
0 750 T
S 5 W
S [] 0 B
0 0 M
1800 0 D
S
S 2 W
S [] 0 B
0 0 M
0 22 D
S
0 0 M
0 11 D
S
0 -750 T
%
% End of x-axis
%
S [] 0 B
%
% End of basemap
%
S [] 0 B
S
%
% PostScript produced by:
%
%% pstext -JX6/-2.5 -N -R0/42.5/0/9 -B50/4nw -K -O 

S 1 W
S [] 0 B
S 0 A
381 667 M 0 -17 G 50 F4 (1) Z
762 667 M 0 -17 G 50 F4 (2) Z
1144 667 M 0 -17 G 50 F4 (3) Z
1525 667 M 0 -17 G 50 F4 (4) Z
%
% Start of basemap
%
S [] 0 B
%
% Map boundaries
%
%
% Start of left y-axis
%
90 R
S 5 W
S [] 0 B
0 0 M
750 0 D
S
S 2 W
S [] 0 B
750 0 M
0 22 D
S
417 0 M
0 22 D
S
83 0 M
0 22 D
S
750 0 M
0 11 D
S
417 0 M
0 11 D
S
83 0 M
0 11 D
S
-90 R
%
% End of y-axis
%
%
% Start of upper x-axis
%
0 750 T
S 5 W
S [] 0 B
0 0 M
1800 0 D
S
S 2 W
S [] 0 B
0 0 M
0 22 D
S
0 0 M
0 11 D
S
0 -750 T
%
% End of x-axis
%
S [] 0 B
%
% End of basemap
%
S [] 0 B
S
%
% PostScript produced by:
%
%% psbasemap -JX6/-2.5 -R0/42.5/0/9 -B50/4nw -O 

S 0 A
%
% Start of basemap
%
S [] 0 B
%
% Map boundaries
%
%
% Start of left y-axis
%
90 R
S 5 W
S [] 0 B
0 0 M
750 0 D
S
S 2 W
S [] 0 B
750 0 M
0 22 D
S
417 0 M
0 22 D
S
83 0 M
0 22 D
S
750 0 M
0 11 D
S
417 0 M
0 11 D
S
83 0 M
0 11 D
S
-90 R
%
% End of y-axis
%
%
% Start of upper x-axis
%
0 750 T
S 5 W
S [] 0 B
0 0 M
1800 0 D
S
S 2 W
S [] 0 B
0 0 M
0 22 D
S
0 0 M
0 11 D
S
0 -750 T
%
% End of x-axis
%
S [] 0 B
%
% End of basemap
%
S [] 0 B
%%Trailer
%%BoundingBox: 67 67 509 257
% Reset translations and scale and call showpage
S 0 0 T 4.16667 4.16667 scale
showpage

end
%%BoundingBox: 13 11 521 273
